<?xml version="1.0" encoding="utf-8"?>
<!-- Generator: Adobe Illustrator 15.0.0, SVG Export Plug-In . SVG Version: 6.00 Build 0)  -->
<!DOCTYPE svg PUBLIC "-//W3C//DTD SVG 1.1//EN" "http://www.w3.org/Graphics/SVG/1.1/DTD/svg11.dtd">
<svg version="1.1" id="Layer_1" xmlns="http://www.w3.org/2000/svg" xmlns:xlink="http://www.w3.org/1999/xlink" x="0px" y="0px"
	 width="1208px" height="1208.001px" viewBox="0 0 1208 1208.001" style="enable-background:new 0 0 1208 1208.001;"
	 xml:space="preserve">
<g>
	<g style="opacity:0.03;">
		<g>
			<circle style="fill:none;stroke:#FFFFFF;stroke-width:80;stroke-miterlimit:10;" cx="604" cy="604.001" r="395"/>
		</g>
	</g>
	<g style="opacity:0.03;">
		<g>
			<circle style="fill:none;stroke:#FFFFFF;stroke-width:80;stroke-miterlimit:10;" cx="604" cy="604.001" r="564"/>
		</g>
	</g>
</g>
</svg>
